<?xml version="1.0" encoding="utf-8"?>
<!-- Generator: Adobe Illustrator 16.0.0, SVG Export Plug-In . SVG Version: 6.00 Build 0)  -->
<!DOCTYPE svg PUBLIC "-//W3C//DTD SVG 1.1//EN" "http://www.w3.org/Graphics/SVG/1.1/DTD/svg11.dtd">
<svg version="1.1" id="Camada_1" xmlns="http://www.w3.org/2000/svg" xmlns:xlink="http://www.w3.org/1999/xlink" x="0px" y="0px"
	 width="282.39px" height="262.826px" viewBox="0 0 282.39 262.826" enable-background="new 0 0 282.39 262.826"
	 xml:space="preserve">
<g>
	<path fill="#474747" d="M673.833,84.053c-0.305,0-0.614-0.035-0.925-0.107c-0.555-0.13-13.748-3.305-27.024-13.689
		c-12.321-9.636-27.009-27.513-27.009-57.953c0-31.32,18.648-50.035,36.681-68.134c12.644-12.689,24.587-24.676,29.026-40.215
		c10.536-36.876-9.595-69.651-9.799-69.978c-0.902-1.441-0.806-3.293,0.24-4.632c1.047-1.341,2.821-1.882,4.436-1.354
		c0.508,0.165,12.568,4.159,26.639,14.359c13.008,9.431,30.248,26.185,38.5,52.441c8.812,28.036-1.072,43.547-8.289,54.872
		c-6.168,9.679-9.891,15.522-3.322,25.698c2.709,4.197,9.2,7.671,18.575,3.646c10.795-4.635,19.637-17.769,15.056-36.663
		c-0.439-1.812,0.419-3.689,2.076-4.544c1.656-0.854,3.683-0.464,4.904,0.944c0.351,0.404,8.674,10.072,16.492,25.193
		c7.27,14.059,15.409,35.653,12.904,58.694c-2.543,23.384-15.307,43.779-37.935,60.621c-1.79,1.333-4.321,0.962-5.654-0.829
		c-1.332-1.79-0.962-4.322,0.829-5.654c20.752-15.445,32.436-33.953,34.725-55.012c2.92-26.851-10.001-52.14-19.111-66.215
		c-1.119,15.448-10.392,26.294-21.098,30.89c-11.352,4.873-22.826,2.186-28.555-6.689c-9.379-14.53-2.935-24.644,3.298-34.424
		c7.067-11.09,15.077-23.66,7.394-48.104c-6.064-19.299-17.943-35.5-35.305-48.156c-5.412-3.944-10.545-6.911-14.711-9.036
		c5.818,13.455,13.385,38.491,5.481,66.151c-5.013,17.545-18.26,30.841-31.071,43.699c-16.875,16.937-34.324,34.448-34.324,62.43
		c0,21.706,7.961,38.998,23.66,51.396c11.889,9.387,24.021,12.352,24.142,12.38c2.169,0.517,3.513,2.692,3.001,4.861
		C677.32,82.799,675.664,84.053,673.833,84.053z"/>
	<path fill="#474747" d="M731.053,84.052c-1.006,0-2.012-0.373-2.795-1.124c-1.611-1.544-1.665-4.103-0.121-5.713
		c10.925-11.395,14.633-23.78,10.726-35.818c-4.295-13.232-16.969-23.891-29.222-28.772c1.816,5.035,2.413,9.7,1.822,14.111
		c-0.966,7.215-5.026,13.609-12.414,19.548c-4.918,3.954-7.366,8.206-7.277,12.639c0.189,9.485,11.219,17.754,11.33,17.837
		c1.791,1.325,2.174,3.854,0.852,5.647c-1.323,1.794-3.846,2.181-5.641,0.862c-0.585-0.43-14.324-10.669-14.621-24.146
		c-0.154-7.083,3.309-13.521,10.294-19.138c11.11-8.932,12.472-18.122,4.699-31.724c-0.779-1.363-0.698-3.055,0.208-4.337
		c0.907-1.282,2.475-1.924,4.019-1.645c16.351,2.953,37.202,16.792,43.638,36.621c3.406,10.493,3.988,26.628-12.578,43.907
		C733.178,83.636,732.116,84.052,731.053,84.052z"/>
</g>
<g>
	<path fill="#474747" d="M-555.17-168.997h-68.191c-2.26,0-4.091-1.832-4.091-4.091c0-2.26,1.832-4.092,4.091-4.092h68.191
		c2.26,0,4.091,1.832,4.091,4.092C-551.079-170.829-552.91-168.997-555.17-168.997z"/>
	<path fill="#474747" d="M-716.919-185.636c-2.26,0-4.091-1.832-4.091-4.091v-76.102c0-2.26,1.832-4.091,4.091-4.091h107.469
		c2.26,0,4.092,1.832,4.092,4.091v16.639h14.729v-34.641c0-2.26,1.832-4.091,4.091-4.091h66.882c2.004,0,3.712,1.451,4.037,3.428
		l11.129,67.667c0.037,0.219,0.055,0.441,0.055,0.664v24.8c0,2.26-1.832,4.091-4.092,4.091c-2.26,0-4.091-1.832-4.091-4.091v-24.466
		l-10.511-63.91h-59.316v34.641c0,2.26-1.832,4.092-4.092,4.092h-22.912c-2.26,0-4.091-1.832-4.091-4.092v-16.639h-99.287v72.01
		C-712.828-187.467-714.66-185.636-716.919-185.636z"/>
	<path fill="#474747" d="M-510.982-224.096h-75.283c-2.26,0-4.091-1.832-4.091-4.091s1.832-4.091,4.091-4.091h75.283
		c2.26,0,4.091,1.832,4.091,4.091S-508.722-224.096-510.982-224.096z"/>
	<path fill="#474747" d="M-679.761-143.844c-12.516,0-22.698-10.182-22.698-22.698c0-12.516,10.182-22.698,22.698-22.698
		c12.516,0,22.698,10.182,22.698,22.698C-657.063-154.026-667.245-143.844-679.761-143.844z M-679.761-181.057
		c-8.004,0-14.515,6.511-14.515,14.515s6.511,14.515,14.515,14.515s14.515-6.511,14.515-14.515S-671.757-181.057-679.761-181.057z"
		/>
	<path fill="#474747" d="M-642.547-143.844c-12.516,0-22.698-10.182-22.698-22.698c0-12.516,10.183-22.698,22.698-22.698
		s22.698,10.182,22.698,22.698C-619.849-154.026-630.032-143.844-642.547-143.844z M-642.547-181.057
		c-8.004,0-14.515,6.511-14.515,14.515s6.511,14.515,14.515,14.515s14.515-6.511,14.515-14.515S-634.543-181.057-642.547-181.057z"
		/>
	<path fill="#474747" d="M-536.58-143.844c-12.516,0-22.698-10.182-22.698-22.698c0-12.516,10.182-22.698,22.698-22.698
		c12.516,0,22.698,10.182,22.698,22.698C-513.882-154.026-524.064-143.844-536.58-143.844z M-536.58-181.057
		c-8.004,0-14.515,6.511-14.515,14.515s6.511,14.515,14.515,14.515c8.004,0,14.515-6.511,14.515-14.515
		S-528.576-181.057-536.58-181.057z"/>
	<path fill="#474747" d="M-555.443-224.368c-2.26,0-4.091-1.832-4.091-4.092v-41.46c0-2.26,1.832-4.092,4.091-4.092
		c2.26,0,4.092,1.832,4.092,4.092v41.46C-551.351-226.2-553.183-224.368-555.443-224.368z"/>
	<path fill="#474747" d="M-499.092-169.01h-18.881c-2.26,0-4.092-1.832-4.092-4.092c0-2.26,1.832-4.091,4.092-4.091h14.79v-7.995
		h-14.79c-2.26,0-4.092-1.832-4.092-4.092c0-2.26,1.832-4.091,4.092-4.091h18.881c2.26,0,4.091,1.832,4.091,4.091v16.178
		C-495.001-170.841-496.833-169.01-499.092-169.01z"/>
	<path fill="#474747" d="M-698.367-169.01h-26.014c-2.26,0-4.092-1.832-4.092-4.092v-16.178c0-2.26,1.832-4.091,4.092-4.091h18.881
		c2.26,0,4.091,1.832,4.091,4.091c0,2.26-1.832,4.092-4.091,4.092h-14.79v7.995h21.923c2.26,0,4.091,1.832,4.091,4.091
		C-694.276-170.841-696.107-169.01-698.367-169.01z"/>
	<path fill="#474747" d="M-561.171-185.363h-56.189c-2.26,0-4.091-1.832-4.091-4.092c0-2.26,1.832-4.091,4.091-4.091h56.189
		c2.26,0,4.092,1.832,4.092,4.091C-557.079-187.194-558.911-185.363-561.171-185.363z"/>
	<path fill="#474747" d="M-477.705-326.109h-253.126c-2.26,0-4.091-1.832-4.091-4.092c0-2.26,1.832-4.091,4.091-4.091h253.126
		c2.26,0,4.091,1.832,4.091,4.091C-473.613-327.941-475.445-326.109-477.705-326.109z"/>
	<path fill="#474747" d="M-477.705-295.56h-253.126c-2.26,0-4.091-1.832-4.091-4.091s1.832-4.091,4.091-4.091h253.126
		c2.26,0,4.091,1.832,4.091,4.091S-475.445-295.56-477.705-295.56z"/>
	<path fill="#474747" d="M-716.919-298.561c-2.26,0-4.091-1.832-4.091-4.091v-26.731c0-2.26,1.832-4.091,4.091-4.091
		s4.091,1.832,4.091,4.091v26.731C-712.828-300.392-714.66-298.561-716.919-298.561z"/>
	<path fill="#474747" d="M-689.097-298.561c-2.26,0-4.092-1.832-4.092-4.091v-26.731c0-2.26,1.832-4.091,4.092-4.091
		c2.26,0,4.091,1.832,4.091,4.091v26.731C-685.006-300.392-686.837-298.561-689.097-298.561z"/>
	<path fill="#474747" d="M-660.73-298.561c-2.26,0-4.091-1.832-4.091-4.091v-26.731c0-2.26,1.832-4.091,4.091-4.091
		c2.26,0,4.092,1.832,4.092,4.091v26.731C-656.638-300.392-658.47-298.561-660.73-298.561z"/>
	<path fill="#474747" d="M-632.908-298.561c-2.26,0-4.092-1.832-4.092-4.091v-26.731c0-2.26,1.832-4.091,4.092-4.091
		c2.26,0,4.091,1.832,4.091,4.091v26.731C-628.816-300.392-630.648-298.561-632.908-298.561z"/>
	<path fill="#474747" d="M-605.086-298.561c-2.26,0-4.091-1.832-4.091-4.091v-26.731c0-2.26,1.832-4.091,4.091-4.091
		s4.091,1.832,4.091,4.091v26.731C-600.995-300.392-602.826-298.561-605.086-298.561z"/>
	<path fill="#474747" d="M-576.718-298.561c-2.26,0-4.091-1.832-4.091-4.091v-26.731c0-2.26,1.832-4.091,4.091-4.091
		s4.091,1.832,4.091,4.091v26.731C-572.627-300.392-574.458-298.561-576.718-298.561z"/>
	<path fill="#474747" d="M-548.896-298.561c-2.26,0-4.091-1.832-4.091-4.091v-26.731c0-2.26,1.832-4.091,4.091-4.091
		c2.26,0,4.092,1.832,4.092,4.091v26.731C-544.805-300.392-546.636-298.561-548.896-298.561z"/>
	<path fill="#474747" d="M-520.529-298.561c-2.26,0-4.091-1.832-4.091-4.091v-26.731c0-2.26,1.832-4.091,4.091-4.091
		s4.091,1.832,4.091,4.091v26.731C-516.438-300.392-518.269-298.561-520.529-298.561z"/>
	<path fill="#474747" d="M-492.707-298.561c-2.26,0-4.091-1.832-4.091-4.091v-26.731c0-2.26,1.832-4.091,4.091-4.091
		c2.26,0,4.092,1.832,4.092,4.091v26.731C-488.615-300.392-490.447-298.561-492.707-298.561z"/>
	<path fill="#474747" d="M-623.634-265.829c-2.26,0-4.092-1.832-4.092-4.091v-13.093c0-2.26,1.832-4.091,4.092-4.091
		s4.091,1.832,4.091,4.091v13.093C-619.542-267.66-621.374-265.829-623.634-265.829z"/>
	<path fill="#474747" d="M-698.372-265.829c-2.26,0-4.091-1.832-4.091-4.091v-13.093c0-2.26,1.832-4.091,4.091-4.091
		c2.26,0,4.092,1.832,4.092,4.091v13.093C-694.28-267.66-696.111-265.829-698.372-265.829z"/>
	<path fill="#474747" d="M-661.275-265.829c-2.26,0-4.091-1.832-4.091-4.091v-13.093c0-2.26,1.832-4.091,4.091-4.091
		s4.091,1.832,4.091,4.091v13.093C-657.184-267.66-659.016-265.829-661.275-265.829z"/>
	<path fill="#474747" d="M-612.996-280.285h-98.195c-2.26,0-4.091-1.832-4.091-4.091s1.832-4.091,4.091-4.091h98.195
		c2.26,0,4.091,1.832,4.091,4.091S-610.736-280.285-612.996-280.285z"/>
</g>
<g>
	<g>
		<path fill="#9B0C18" d="M76.11,114.258c-0.601,0-1.21-0.142-1.779-0.44c-5.931-3.108-10.852-8.115-13.855-14.098
			c-0.951-1.896-0.187-4.204,1.709-5.155c1.895-0.951,4.203-0.186,5.154,1.709c2.289,4.559,6.039,8.375,10.557,10.743
			c1.878,0.985,2.603,3.306,1.619,5.184C78.829,113.509,77.493,114.258,76.11,114.258z"/>
		<path fill="#9B0C18" d="M89.256,117.482c-2.121,0-3.84-1.719-3.84-3.84c0-2.121,1.719-3.84,3.84-3.84
			c13.513,0,24.507-10.994,24.507-24.507c0-6.808-2.726-13.134-7.676-17.813c-1.541-1.456-1.609-3.887-0.152-5.428
			c1.457-1.542,3.887-1.611,5.428-0.153c6.5,6.145,10.08,14.453,10.08,23.394C121.442,103.042,107.004,117.482,89.256,117.482z"/>
		<path fill="#9B0C18" d="M102.137,180.377c-3.293,0-6.587-0.798-9.547-2.399c-5.682-3.074-10.68-7.131-14.855-12.059l-19.766-23.54
			c-1.364-1.624-1.153-4.046,0.472-5.41c1.624-1.364,4.046-1.153,5.41,0.471l19.754,23.526c3.545,4.184,7.801,7.639,12.64,10.256
			c3.812,2.062,8.33,2.001,12.086-0.163l60.117-34.646c3.682-2.122,5.251-6.69,3.652-10.627c-0.901-2.218-2.628-3.911-4.864-4.767
			c-2.219-0.85-4.616-0.752-6.757,0.276l-52.439,27.515c-1.602,0.84-3.573,0.449-4.732-0.94L88.91,130.618
			c-1.359-1.628-1.14-4.05,0.488-5.409c1.628-1.359,4.05-1.141,5.408,0.488l12.412,14.874l49.748-26.103
			c0.033-0.019,0.068-0.035,0.102-0.052c4.026-1.961,8.734-2.168,12.915-0.567c4.183,1.602,7.547,4.899,9.233,9.048
			c3.036,7.473,0.055,16.144-6.933,20.171l-60.117,34.646C109.089,179.488,105.613,180.377,102.137,180.377z"/>
		<path fill="#9B0C18" d="M43.161,226.894c-0.07,0-0.142-0.002-0.213-0.006c-2.118-0.116-3.74-1.927-3.624-4.044l4.279-77.959
			c0.004-0.068,0.01-0.137,0.017-0.205c1.397-12.817,5.847-25.307,12.869-36.12l6.109-9.409c1.155-1.779,3.533-2.284,5.312-1.129
			c1.779,1.155,2.284,3.533,1.129,5.312l-6.109,9.409c-6.352,9.781-10.383,21.076-11.663,32.668l-4.273,77.854
			C46.88,225.31,45.186,226.894,43.161,226.894z"/>
		<path fill="#9B0C18" d="M112.422,225.202c-2.028,0-3.723-1.588-3.832-3.637l-1.101-20.783c-0.112-2.118,1.513-3.926,3.631-4.038
			c2.12-0.102,3.925,1.514,4.038,3.631l1.101,20.784c0.112,2.118-1.514,3.925-3.631,4.038
			C112.559,225.2,112.49,225.202,112.422,225.202z"/>
		<path fill="#9B0C18" d="M106.255,149.252c-0.49,0-0.988-0.094-1.468-0.293c-1.959-0.811-2.89-3.057-2.078-5.017l3.176-7.67
			c5.676-13.708,15.975-25.17,28.998-32.276l21.136-11.533c1.862-1.017,4.194-0.33,5.21,1.532c1.016,1.862,0.331,4.194-1.532,5.21
			l-21.135,11.533c-11.488,6.269-20.573,16.381-25.581,28.473l-3.176,7.67C109.191,148.359,107.762,149.252,106.255,149.252z"/>
		<path fill="#9B0C18" d="M176.103,129.122c-1.368,0-2.693-0.734-3.386-2.023c-1.004-1.868-0.303-4.197,1.565-5.2l3.99-2.143
			l-17.355-34.602l-3.018,1.513l13.767,28.368c0.926,1.908,0.13,4.205-1.778,5.131c-1.907,0.925-4.205,0.13-5.131-1.778
			L149.335,86.61c-0.917-1.891-0.145-4.167,1.733-5.109l9.838-4.935c0.91-0.457,1.964-0.533,2.931-0.212
			c0.966,0.321,1.766,1.012,2.223,1.923l20.75,41.372c0.932,1.858,0.216,4.12-1.615,5.104l-7.279,3.911
			C177.339,128.974,176.716,129.122,176.103,129.122z"/>
		<path fill="#9B0C18" d="M21.251,233.487c-1.727,0-3.294-1.171-3.726-2.922c-0.507-2.059,0.751-4.139,2.81-4.647l35.64-8.783
			c11.626-2.865,21.628-10.513,27.438-20.983l11.91-21.458c1.029-1.854,3.366-2.523,5.221-1.494
			c1.854,1.029,2.523,3.366,1.494,5.221l-11.91,21.459c-6.844,12.331-18.622,21.338-32.316,24.713l-35.64,8.783
			C21.864,233.451,21.555,233.487,21.251,233.487z"/>
		<path fill="#9B0C18" d="M79.551,238.168c-1.308,0-2.583-0.668-3.302-1.873c-1.086-1.822-0.491-4.179,1.331-5.266l6.054-3.612
			c8.157-4.866,14.754-11.909,19.08-20.366l23.161-45.293c0.965-1.889,3.279-2.636,5.167-1.67c1.888,0.965,2.636,3.278,1.67,5.167
			l-23.162,45.294c-4.982,9.744-12.583,17.858-21.982,23.465l-6.054,3.612C80.898,237.994,80.221,238.168,79.551,238.168z"/>
		<path fill="#9B0C18" d="M43.16,110.197c-1.512,0-2.946-0.9-3.555-2.386c-0.804-1.962,0.135-4.205,2.098-5.009
			c46.382-19.004,82.012-60.315,82.366-60.73c1.377-1.612,3.801-1.804,5.414-0.427c1.613,1.376,1.805,3.8,0.429,5.413
			c-1.494,1.751-37.151,43.125-85.296,62.852C44.138,110.104,43.645,110.197,43.16,110.197z"/>
		<path fill="#9B0C18" d="M56.263,104.15c-1.364,0-2.684-0.727-3.379-2.01c-4.161-7.675-5.793-16.688-4.594-25.379
			c1.239-8.987,5.292-17.137,11.723-23.567c1.5-1.5,3.931-1.5,5.431,0c1.5,1.5,1.5,3.932,0,5.431
			C54.976,69.091,52.587,85.48,59.636,98.479c1.01,1.864,0.319,4.195-1.546,5.206C57.509,104.001,56.881,104.15,56.263,104.15z"/>
		<path fill="#9B0C18" d="M110.554,65.171c-1.192,0-2.367-0.554-3.118-1.595c-11.812-16.383-30.084-8.711-30.856-8.376
			c-1.613,0.699-3.505,0.219-4.579-1.172l-7.283-9.441c-0.737-0.956-0.982-2.202-0.662-3.364c0.32-1.163,1.168-2.108,2.291-2.552
			c11.075-4.381,27.41-7.863,42.322,0.425c9.044,5.026,13.215,12.057,13.389,12.354c1.069,1.832,0.45,4.184-1.382,5.252
			c-1.826,1.065-4.169,0.454-5.243-1.367c-0.523-0.876-12.47-20.205-41.396-11.242l2.35,3.075c2.532-0.766,6.521-1.648,11.167-1.648
			c0.018,0,0.036,0,0.054,0c7.415,0,17.955,2.356,26.058,13.595c1.24,1.72,0.851,4.106-0.87,5.346
			C112.117,64.949,111.332,65.171,110.554,65.171z"/>
		<path fill="#9B0C18" d="M180.185,114.257c-1.192,0-2.367-0.553-3.118-1.594c-1.24-1.721-0.852-4.121,0.869-5.361l26.193-18.887
			l-2.526-5.472L172.18,94.749c-1.969,0.79-4.204-0.165-4.994-2.134c-0.79-1.968,0.166-4.204,2.133-4.994l32.81-13.165
			c1.899-0.76,4.06,0.098,4.917,1.954l5.383,11.659c0.77,1.668,0.25,3.649-1.24,4.724l-28.761,20.739
			C181.749,114.021,180.963,114.257,180.185,114.257z"/>
		<path fill="#9B0C18" d="M210.993,97.597c-1.444,0-2.828-0.818-3.48-2.213l-9.292-19.846c-0.898-1.921-0.071-4.207,1.85-5.106
			c1.921-0.899,4.207-0.071,5.106,1.849l9.292,19.846c0.899,1.921,0.071,4.207-1.85,5.106
			C212.092,97.479,211.538,97.597,210.993,97.597z"/>
	</g>
	<path fill="#9B0C18" d="M210.883,69.669c-1.516-1.674-1.388-4.27,0.286-5.786l0,0c1.675-1.521,4.265-1.393,5.786,0.287l0,0
		c1.52,1.674,1.393,4.265-0.287,5.785l0,0c-0.784,0.707-1.767,1.06-2.745,1.06l0,0C212.809,71.016,211.692,70.56,210.883,69.669z
		 M224.922,56.946c-1.516-1.674-1.393-4.265,0.286-5.786l0,0c1.674-1.516,4.265-1.388,5.786,0.286l0,0
		c1.52,1.675,1.392,4.265-0.287,5.787l0,0c-0.784,0.711-1.767,1.059-2.75,1.059l0,0C226.842,58.292,225.731,57.842,224.922,56.946z
		 M238.961,44.228c-1.521-1.68-1.393-4.27,0.282-5.785l0,0c1.679-1.521,4.27-1.393,5.785,0.281l0,0
		c1.521,1.68,1.393,4.27-0.281,5.785l0,0c-0.784,0.712-1.767,1.065-2.75,1.061l0,0C240.881,45.57,239.77,45.119,238.961,44.228z
		 M253,31.505c-1.521-1.675-1.394-4.266,0.281-5.786l0,0c1.68-1.521,4.27-1.393,5.786,0.287l0,0
		c1.521,1.674,1.393,4.265-0.281,5.786l0,0c-0.784,0.712-1.772,1.06-2.75,1.06l0,0C254.92,32.852,253.809,32.396,253,31.505z"/>
	<path fill="#9B0C18" d="M260.517,94.466c-2.253-0.2-3.917-2.191-3.717-4.444l0,0c0.205-2.253,2.197-3.917,4.449-3.712l0,0
		c2.253,0.2,3.917,2.191,3.711,4.444l0,0c-0.188,2.13-1.976,3.732-4.075,3.732l0,0C260.762,94.486,260.639,94.476,260.517,94.466z
		 M241.649,92.771c-2.257-0.205-3.917-2.191-3.717-4.444l0,0c0.205-2.258,2.196-3.917,4.449-3.717l0,0
		c2.252,0.205,3.917,2.197,3.712,4.45l0,0c-0.189,2.129-1.981,3.727-4.075,3.727l0,0C241.895,92.786,241.772,92.781,241.649,92.771z
		 M222.782,91.076c-2.258-0.205-3.917-2.196-3.717-4.449l0,0c0.205-2.252,2.196-3.912,4.449-3.712l0,0
		c2.252,0.205,3.912,2.191,3.711,4.449l0,0c-0.189,2.125-1.981,3.727-4.075,3.727l0,0C223.028,91.091,222.905,91.087,222.782,91.076
		z"/>
	<path fill="#9B0C18" d="M216.525,77.431c-0.804-2.109,0.256-4.48,2.366-5.283l0,0c2.114-0.81,4.48,0.25,5.289,2.359l0,0
		c0.809,2.115-0.251,4.486-2.365,5.289l0,0c-0.481,0.185-0.973,0.271-1.459,0.271l0,0C218.707,80.068,217.15,79.064,216.525,77.431z
		 M234.225,70.673c-0.808-2.115,0.251-4.48,2.366-5.289l0,0c2.109-0.804,4.48,0.251,5.284,2.365l0,0
		c0.81,2.115-0.25,4.485-2.365,5.289l0,0c-0.476,0.184-0.973,0.271-1.459,0.271l0,0C236.401,73.31,234.85,72.306,234.225,70.673z
		 M251.919,63.915c-0.803-2.114,0.251-4.48,2.366-5.289l0,0c2.114-0.804,4.48,0.25,5.289,2.365l0,0
		c0.81,2.114-0.251,4.48-2.365,5.289l0,0c-0.481,0.184-0.972,0.271-1.46,0.271l0,0C254.102,66.551,252.544,65.548,251.919,63.915z"
		/>
</g>
<g>
	<g>
		<path fill="#9B0C18" d="M-164.738-56.039h-50.275c-10.146,0-18.401-8.255-18.401-18.401v-128.526
			c0-24.007,19.532-43.539,43.539-43.539c24.008,0,43.539,19.532,43.539,43.539v128.526
			C-146.337-64.293-154.592-56.039-164.738-56.039z M-189.876-238.824c-19.772,0-35.859,16.086-35.859,35.859v128.526
			c0,5.911,4.81,10.721,10.721,10.721h50.275c5.912,0,10.722-4.81,10.722-10.721v-128.526
			C-154.017-222.738-170.103-238.824-189.876-238.824z"/>
		<path fill="#9B0C18" d="M-150.62-106.669h-54.658c-2.121,0-3.84-1.719-3.84-3.84v-70.018c0-2.121,1.719-3.84,3.84-3.84h54.658
			c2.121,0,3.84,1.719,3.84,3.84c0,2.121-1.719,3.84-3.84,3.84h-50.818v62.338h50.818c2.121,0,3.84,1.719,3.84,3.84
			C-146.78-108.388-148.5-106.669-150.62-106.669z"/>
		<path fill="#9B0C18" d="M-189.876-238.824c-7.258,0-13.163-5.905-13.163-13.163c0-7.258,5.905-13.163,13.163-13.163
			s13.163,5.905,13.163,13.163C-176.713-244.729-182.618-238.824-189.876-238.824z M-189.876-257.47
			c-3.023,0-5.482,2.459-5.482,5.482c0,3.023,2.459,5.483,5.482,5.483s5.482-2.459,5.482-5.483
			C-184.394-255.01-186.853-257.47-189.876-257.47z"/>
		<path fill="#9B0C18" d="M-183.099-241.753c-1.918,0-3.576-1.435-3.808-3.387c-0.25-2.105,1.253-4.016,3.359-4.267l18.869-2.244
			l-18.032-3.378c-1.587-0.297-2.819-1.556-3.082-3.15c-0.263-1.594,0.5-3.181,1.908-3.972l20.088-11.282l-41.268,9.136
			c-0.04,0.009-0.056,0.017-0.056,0.017c0.009,0,0.005,0.044,0.008,0.076c0.006,0.002,0.018,0.01,0.033,0.018l8.686,4.547
			c1.879,0.983,2.605,3.304,1.622,5.183c-0.983,1.878-3.305,2.605-5.183,1.621l-8.687-4.547c-2.914-1.525-4.516-4.616-4.083-7.876
			c0.434-3.259,2.788-5.825,5.999-6.536l54.992-12.174c2.733-0.604,5.442,0.854,6.441,3.469s-0.048,5.509-2.489,6.88l-23.127,12.99
			l21.012,3.935c2.739,0.513,4.659,2.906,4.566,5.69c-0.093,2.785-2.168,5.045-4.935,5.374l-32.376,3.851
			C-182.794-241.762-182.947-241.753-183.099-241.753z"/>
	</g>
	<path fill="#9B0C18" d="M-262.229-157.018c-2.12,0-3.84-1.719-3.84-3.84v-35.175c0-29.446,23.956-53.401,53.401-53.401h13.671
		c2.121,0,3.84,1.719,3.84,3.84c0,2.121-1.719,3.84-3.84,3.84h-13.671c-25.21,0-45.721,20.51-45.721,45.721v35.175
		C-258.389-158.737-260.108-157.018-262.229-157.018z"/>
	<path fill="#9B0C18" d="M-249.276-85.926h-27.545c-1.102,0-2.151-0.474-2.88-1.3c-0.729-0.826-1.067-1.926-0.93-3.02l8.704-69.12
		c0.242-1.92,1.875-3.36,3.81-3.36h10.752c1.948,0,3.587,1.459,3.814,3.394l8.089,69.12c0.127,1.089-0.217,2.18-0.945,2.999
		C-247.136-86.394-248.18-85.926-249.276-85.926z M-272.467-93.606h18.875l-7.19-61.44h-3.948L-272.467-93.606z"/>
</g>
<g>
	<path fill="#9B0C18" d="M-181.106,226.369h-228.353c-2.121,0-3.84-1.719-3.84-3.84c0-2.121,1.719-3.84,3.84-3.84h228.353
		c2.12,0,3.84,1.719,3.84,3.84C-177.267,224.65-178.986,226.369-181.106,226.369z"/>
	<path fill="#9B0C18" d="M-181.106,204.353h-228.353c-2.121,0-3.84-1.719-3.84-3.84s1.719-3.84,3.84-3.84h228.353
		c2.12,0,3.84,1.719,3.84,3.84S-178.986,204.353-181.106,204.353z"/>
	<path fill="#9B0C18" d="M-296.051,250.689c-2.122,0-3.84-1.719-3.84-3.84v-24.064c0-2.121,1.719-3.84,3.84-3.84
		c2.121,0,3.84,1.719,3.84,3.84v24.064C-292.211,248.97-293.931,250.689-296.051,250.689z"/>
	<path fill="#9B0C18" d="M-282.483,254.017h-27.648c-2.122,0-3.84-1.719-3.84-3.84s1.719-3.84,3.84-3.84h27.648
		c2.121,0,3.84,1.719,3.84,3.84S-280.362,254.017-282.483,254.017z"/>
	<path fill="#9B0C18" d="M-214.321,337.156c-1.797-1.797-1.797-4.715,0-6.518l0,0c1.803-1.797,4.717-1.797,6.518,0l0,0
		c1.803,1.802,1.803,4.721,0,6.518l0,0c-0.9,0.901-2.078,1.352-3.256,1.352l0,0C-212.243,338.507-213.42,338.057-214.321,337.156z
		 M-227.716,323.762c-1.797-1.802-1.797-4.715,0-6.518l0,0c1.798-1.797,4.717-1.797,6.52,0l0,0c1.797,1.802,1.797,4.716,0,6.518l0,0
		c-0.902,0.901-2.08,1.347-3.262,1.347l0,0C-225.636,325.108-226.813,324.663-227.716,323.762z M-241.108,310.368
		c-1.803-1.802-1.803-4.721,0-6.518l0,0c1.797-1.803,4.715-1.803,6.512,0l0,0c1.803,1.797,1.803,4.715,0,6.518l0,0
		c-0.895,0.896-2.078,1.346-3.256,1.346l0,0C-239.03,311.714-240.213,311.264-241.108,310.368z M-254.508,296.969
		c-1.798-1.797-1.798-4.715,0-6.512l0,0c1.802-1.803,4.72-1.803,6.518,0l0,0c1.802,1.797,1.802,4.715,0,6.512l0,0
		c-0.901,0.901-2.079,1.352-3.257,1.352l0,0C-252.429,298.321-253.606,297.87-254.508,296.969z M-267.902,283.575
		c-1.797-1.797-1.797-4.716,0-6.518l0,0c1.802-1.797,4.715-1.797,6.518,0l0,0c1.797,1.802,1.797,4.721,0,6.518l0,0
		c-0.901,0.901-2.079,1.352-3.262,1.352l0,0C-265.823,284.927-267,284.476-267.902,283.575z M-281.296,270.181
		c-1.802-1.802-1.802-4.72,0-6.517l0,0c1.797-1.797,4.716-1.797,6.513,0l0,0c1.802,1.797,1.802,4.715,0,6.517l0,0
		c-0.896,0.896-2.08,1.347-3.257,1.347l0,0C-279.217,271.528-280.395,271.077-281.296,270.181z"/>
	<path fill="#9B0C18" d="M-384.54,337.156c-1.797-1.797-1.797-4.715,0-6.518l0,0c1.801-1.797,4.715-1.797,6.517,0l0,0
		c1.797,1.802,1.797,4.721,0,6.518l0,0c-0.901,0.901-2.078,1.352-3.256,1.352l0,0C-382.462,338.507-383.64,338.057-384.54,337.156z
		 M-371.142,323.762c-1.802-1.802-1.802-4.715,0-6.518l0,0c1.797-1.797,4.715-1.797,6.513,0l0,0c1.803,1.802,1.803,4.716,0,6.518
		l0,0c-0.896,0.901-2.079,1.347-3.256,1.347l0,0C-369.063,325.108-370.245,324.663-371.142,323.762z M-357.748,310.368
		c-1.802-1.802-1.802-4.721,0-6.518l0,0c1.797-1.803,4.715-1.803,6.518,0l0,0c1.797,1.797,1.797,4.715,0,6.518l0,0
		c-0.901,0.896-2.083,1.346-3.261,1.346l0,0C-355.669,311.714-356.847,311.264-357.748,310.368z M-344.354,296.969
		c-1.798-1.797-1.798-4.715,0-6.512l0,0c1.802-1.803,4.721-1.803,6.518,0l0,0c1.797,1.797,1.797,4.715,0,6.512l0,0
		c-0.901,0.901-2.079,1.352-3.262,1.352l0,0C-342.275,298.321-343.453,297.87-344.354,296.969z M-330.96,283.575
		c-1.797-1.797-1.797-4.716,0-6.518l0,0c1.803-1.797,4.721-1.797,6.518,0l0,0c1.802,1.802,1.802,4.721,0,6.518l0,0
		c-0.896,0.901-2.079,1.352-3.256,1.352l0,0C-328.876,284.927-330.059,284.476-330.96,283.575z M-317.561,270.181
		c-1.802-1.802-1.802-4.72,0-6.517l0,0c1.797-1.797,4.716-1.797,6.513,0l0,0c1.802,1.797,1.802,4.715,0,6.517l0,0
		c-0.896,0.896-2.079,1.347-3.256,1.347l0,0C-315.482,271.528-316.665,271.077-317.561,270.181z"/>
	<path fill="#9B0C18" d="M-301.428,382.529c0-2.544,2.064-4.607,4.608-4.607l0,0c2.544,0,4.608,2.063,4.608,4.607l0,0
		c0,2.545-2.063,4.608-4.608,4.608l0,0C-299.364,387.137-301.428,385.074-301.428,382.529z M-301.428,363.585
		c0-2.545,2.064-4.608,4.608-4.608l0,0c2.544,0,4.608,2.063,4.608,4.608l0,0c0,2.544-2.063,4.607-4.608,4.607l0,0
		C-299.364,368.193-301.428,366.13-301.428,363.585z M-301.428,344.642c0-2.545,2.064-4.608,4.608-4.608l0,0
		c2.544,0,4.608,2.063,4.608,4.608l0,0c0,2.544-2.063,4.608-4.608,4.608l0,0C-299.364,349.25-301.428,347.186-301.428,344.642z
		 M-301.428,325.697c0-2.544,2.064-4.608,4.608-4.608l0,0c2.544,0,4.608,2.063,4.608,4.608l0,0c0,2.544-2.063,4.608-4.608,4.608l0,0
		C-299.364,330.306-301.428,328.242-301.428,325.697z M-301.428,306.753c0-2.545,2.064-4.608,4.608-4.608l0,0
		c2.544,0,4.608,2.063,4.608,4.608l0,0c0,2.544-2.063,4.608-4.608,4.608l0,0C-299.364,311.361-301.428,309.298-301.428,306.753z
		 M-301.428,287.809c0-2.544,2.064-4.608,4.608-4.608l0,0c2.544,0,4.608,2.064,4.608,4.608l0,0c0,2.545-2.063,4.608-4.608,4.608l0,0
		C-299.364,292.417-301.428,290.354-301.428,287.809z M-301.428,268.865c0-2.544,2.064-4.608,4.608-4.608l0,0
		c2.544,0,4.608,2.063,4.608,4.608l0,0c0,2.544-2.063,4.608-4.608,4.608l0,0C-299.364,273.473-301.428,271.41-301.428,268.865z"/>
	<path fill="#9B0C18" d="M-250.924,360.549c-1.05-2.319-0.026-5.048,2.294-6.103l0,0c2.318-1.05,5.048-0.025,6.104,2.294l0,0
		c1.049,2.319,0.025,5.049-2.295,6.098l0,0c-0.619,0.281-1.264,0.415-1.898,0.415l0,0
		C-248.476,363.252-250.151,362.249-250.924,360.549z M-258.747,343.3c-1.055-2.319-0.025-5.048,2.289-6.103l0,0
		c2.318-1.049,5.047-0.025,6.103,2.293l0,0c1.05,2.314,0.025,5.048-2.294,6.098l0,0c-0.619,0.281-1.264,0.415-1.899,0.415l0,0
		C-256.306,346.003-257.979,345-258.747,343.3z M-266.581,326.045c-1.049-2.314-0.02-5.049,2.294-6.098l0,0
		c2.319-1.054,5.048-0.026,6.103,2.289l0,0c1.051,2.319,0.025,5.048-2.293,6.103l0,0c-0.62,0.281-1.266,0.415-1.9,0.415l0,0
		C-264.134,328.754-265.808,327.746-266.581,326.045z M-274.409,308.796c-1.05-2.32-0.021-5.049,2.294-6.104l0,0
		c2.319-1.05,5.048-0.02,6.103,2.294l0,0c1.05,2.319,0.025,5.048-2.293,6.103l0,0c-0.62,0.277-1.265,0.41-1.9,0.41l0,0
		C-271.962,311.5-273.636,310.496-274.409,308.796z M-282.232,291.546c-1.055-2.319-0.026-5.048,2.289-6.103l0,0
		c2.319-1.05,5.048-0.026,6.103,2.293l0,0c1.049,2.319,0.025,5.048-2.294,6.098l0,0c-0.614,0.281-1.264,0.415-1.899,0.415l0,0
		C-279.79,294.25-281.464,293.247-282.232,291.546z"/>
	<path fill="#9B0C18" d="M-347.006,362.843c-2.319-1.055-3.343-3.784-2.294-6.104l0,0c1.055-2.319,3.784-3.344,6.104-2.294l0,0
		c2.314,1.055,3.344,3.784,2.289,6.103l0,0c-0.769,1.7-2.448,2.704-4.199,2.704l0,0
		C-345.741,363.252-346.392,363.119-347.006,362.843z M-339.178,345.588c-2.319-1.05-3.343-3.784-2.293-6.098l0,0
		c1.055-2.319,3.784-3.343,6.103-2.293l0,0c2.314,1.055,3.344,3.784,2.289,6.098l0,0c-0.769,1.705-2.448,2.709-4.199,2.709l0,0
		C-337.913,346.003-338.563,345.87-339.178,345.588z M-331.349,328.339c-2.319-1.055-3.343-3.784-2.294-6.103l0,0
		c1.055-2.315,3.784-3.343,6.103-2.289l0,0c2.314,1.049,3.343,3.784,2.289,6.098l0,0c-0.768,1.7-2.447,2.708-4.199,2.708l0,0
		C-330.084,328.754-330.734,328.621-331.349,328.339z M-323.521,311.09c-2.32-1.055-3.343-3.784-2.293-6.103l0,0
		c1.054-2.319,3.783-3.344,6.103-2.294l0,0c2.314,1.055,3.343,3.784,2.288,6.104l0,0c-0.768,1.699-2.447,2.703-4.198,2.703l0,0
		C-322.256,311.5-322.906,311.367-323.521,311.09z M-315.692,293.835c-2.319-1.05-3.344-3.784-2.293-6.098l0,0
		c1.055-2.319,3.783-3.343,6.103-2.293l0,0c2.314,1.054,3.343,3.784,2.289,6.103l0,0c-0.773,1.7-2.448,2.704-4.199,2.704l0,0
		C-314.428,294.25-315.078,294.117-315.692,293.835z"/>
</g>
<g>
	<rect x="7" y="198" opacity="0.9" fill="#9B0C18" width="269" height="38"/>
	<g>
		<path fill="#FFFFFF" d="M55.594,211.24c-1.412,0-2.527,0.47-3.344,1.411s-1.226,2.228-1.226,3.863
			c0,1.682,0.394,2.981,1.182,3.898s1.912,1.375,3.371,1.375c0.896,0,1.919-0.161,3.067-0.483v1.31
			c-0.891,0.334-1.989,0.501-3.296,0.501c-1.893,0-3.353-0.574-4.381-1.723s-1.542-2.78-1.542-4.896c0-1.324,0.248-2.484,0.743-3.48
			s1.21-1.764,2.145-2.303s2.035-0.809,3.3-0.809c1.348,0,2.525,0.246,3.533,0.738l-0.633,1.283
			C57.539,211.468,56.566,211.24,55.594,211.24z"/>
		<path fill="#FFFFFF" d="M71.15,210.088v8.314c0,1.465-0.442,2.616-1.327,3.454s-2.101,1.257-3.647,1.257s-2.744-0.422-3.59-1.266
			s-1.27-2.004-1.27-3.48v-8.279h1.494v8.385c0,1.072,0.293,1.896,0.879,2.47s1.447,0.861,2.584,0.861
			c1.084,0,1.919-0.289,2.505-0.866s0.879-1.405,0.879-2.483v-8.367H71.15z"/>
		<path fill="#FFFFFF" d="M76.046,217.594v5.344h-1.494v-12.85h3.524c1.576,0,2.741,0.302,3.494,0.905s1.129,1.512,1.129,2.725
			c0,1.699-0.861,2.848-2.584,3.445l3.489,5.774h-1.767l-3.111-5.344H76.046z M76.046,216.311h2.048c1.055,0,1.828-0.209,2.32-0.628
			s0.738-1.047,0.738-1.885c0-0.85-0.25-1.462-0.751-1.837s-1.305-0.563-2.413-0.563h-1.942V216.311z"/>
		<path fill="#FFFFFF" d="M92.93,219.519c0,1.131-0.41,2.013-1.23,2.646s-1.934,0.949-3.34,0.949c-1.523,0-2.695-0.196-3.516-0.589
			v-1.441c0.527,0.223,1.102,0.398,1.723,0.527s1.236,0.193,1.846,0.193c0.996,0,1.746-0.189,2.25-0.567s0.756-0.904,0.756-1.578
			c0-0.445-0.089-0.81-0.268-1.094s-0.478-0.546-0.896-0.787s-1.056-0.513-1.912-0.817c-1.195-0.428-2.049-0.935-2.562-1.521
			s-0.769-1.351-0.769-2.294c0-0.99,0.372-1.778,1.116-2.364s1.729-0.879,2.953-0.879c1.277,0,2.452,0.234,3.524,0.703l-0.466,1.301
			c-1.061-0.445-2.092-0.668-3.094-0.668c-0.791,0-1.409,0.17-1.854,0.51s-0.668,0.812-0.668,1.415c0,0.445,0.082,0.81,0.246,1.094
			s0.441,0.545,0.831,0.782s0.986,0.5,1.789,0.787c1.348,0.48,2.275,0.996,2.782,1.547S92.93,218.64,92.93,219.519z"/>
		<path fill="#FFFFFF" d="M106.711,216.496c0,2.057-0.52,3.674-1.56,4.852s-2.486,1.767-4.337,1.767
			c-1.893,0-3.353-0.579-4.381-1.736s-1.542-2.791-1.542-4.9c0-2.092,0.516-3.713,1.547-4.865s2.496-1.727,4.395-1.727
			c1.846,0,3.287,0.586,4.324,1.758S106.711,214.433,106.711,216.496z M96.472,216.496c0,1.74,0.371,3.06,1.112,3.959
			s1.818,1.349,3.23,1.349c1.424,0,2.499-0.448,3.226-1.345s1.09-2.218,1.09-3.964c0-1.729-0.362-3.04-1.085-3.933
			s-1.794-1.34-3.212-1.34c-1.424,0-2.506,0.45-3.248,1.349S96.472,214.779,96.472,216.496z"/>
		<path fill="#FFFFFF" d="M124.509,216.39c0,2.121-0.576,3.743-1.727,4.865s-2.808,1.683-4.97,1.683h-3.56v-12.85h3.938
			c1.998,0,3.551,0.554,4.658,1.661S124.509,214.404,124.509,216.39z M122.927,216.443c0-1.676-0.42-2.938-1.261-3.788
			s-2.09-1.274-3.749-1.274h-2.171v10.266h1.819c1.781,0,3.12-0.438,4.017-1.314S122.927,218.16,122.927,216.443z"/>
		<path fill="#FFFFFF" d="M134.537,222.938h-7.163v-12.85h7.163v1.327h-5.669v4.14h5.326v1.318h-5.326v4.729h5.669V222.938z"/>
		<path fill="#FFFFFF" d="M142.061,210.088h3.63c1.705,0,2.938,0.255,3.7,0.765s1.143,1.315,1.143,2.417
			c0,0.762-0.212,1.39-0.637,1.885s-1.044,0.816-1.859,0.962v0.088c1.951,0.334,2.927,1.359,2.927,3.076
			c0,1.148-0.388,2.045-1.165,2.689s-1.862,0.967-3.256,0.967h-4.482V210.088z M143.555,215.59h2.461
			c1.055,0,1.813-0.166,2.276-0.497s0.694-0.889,0.694-1.674c0-0.721-0.258-1.241-0.773-1.56s-1.336-0.479-2.461-0.479h-2.197
			V215.59z M143.555,216.856v4.808h2.681c1.037,0,1.818-0.201,2.342-0.602s0.787-1.03,0.787-1.885c0-0.797-0.268-1.383-0.804-1.758
			s-1.352-0.563-2.448-0.563H143.555z"/>
		<path fill="#FFFFFF" d="M164.877,216.496c0,2.057-0.52,3.674-1.56,4.852s-2.486,1.767-4.337,1.767
			c-1.893,0-3.353-0.579-4.381-1.736s-1.542-2.791-1.542-4.9c0-2.092,0.516-3.713,1.547-4.865s2.496-1.727,4.395-1.727
			c1.846,0,3.287,0.586,4.324,1.758S164.877,214.433,164.877,216.496z M154.638,216.496c0,1.74,0.371,3.06,1.112,3.959
			s1.818,1.349,3.23,1.349c1.424,0,2.499-0.448,3.226-1.345s1.09-2.218,1.09-3.964c0-1.729-0.362-3.04-1.085-3.933
			s-1.794-1.34-3.212-1.34c-1.424,0-2.506,0.45-3.248,1.349S154.638,214.779,154.638,216.496z"/>
		<path fill="#FFFFFF" d="M173.429,222.938l-4.359-11.391h-0.07c0.082,0.902,0.123,1.975,0.123,3.217v8.174h-1.38v-12.85h2.25
			l4.069,10.6h0.07l4.104-10.6h2.232v12.85h-1.494v-8.279c0-0.949,0.041-1.98,0.123-3.094h-0.07l-4.395,11.373H173.429z"/>
		<path fill="#FFFFFF" d="M183.993,210.088h3.63c1.705,0,2.938,0.255,3.7,0.765s1.143,1.315,1.143,2.417
			c0,0.762-0.212,1.39-0.637,1.885s-1.044,0.816-1.859,0.962v0.088c1.951,0.334,2.927,1.359,2.927,3.076
			c0,1.148-0.388,2.045-1.165,2.689s-1.862,0.967-3.256,0.967h-4.482V210.088z M185.487,215.59h2.461
			c1.055,0,1.813-0.166,2.276-0.497s0.694-0.889,0.694-1.674c0-0.721-0.258-1.241-0.773-1.56s-1.336-0.479-2.461-0.479h-2.197
			V215.59z M185.487,216.856v4.808h2.681c1.037,0,1.818-0.201,2.342-0.602s0.787-1.03,0.787-1.885c0-0.797-0.268-1.383-0.804-1.758
			s-1.352-0.563-2.448-0.563H185.487z"/>
		<path fill="#FFFFFF" d="M202.819,222.938h-7.163v-12.85h7.163v1.327h-5.669v4.14h5.326v1.318h-5.326v4.729h5.669V222.938z"/>
		<path fill="#FFFFFF" d="M205.667,222.938v-12.85h1.494v12.85H205.667z"/>
		<path fill="#FFFFFF" d="M212.18,217.594v5.344h-1.494v-12.85h3.524c1.576,0,2.741,0.302,3.494,0.905s1.129,1.512,1.129,2.725
			c0,1.699-0.861,2.848-2.584,3.445l3.489,5.774h-1.767l-3.111-5.344H212.18z M212.18,216.311h2.048c1.055,0,1.828-0.209,2.32-0.628
			s0.738-1.047,0.738-1.885c0-0.85-0.25-1.462-0.751-1.837s-1.305-0.563-2.413-0.563h-1.942V216.311z"/>
		<path fill="#FFFFFF" d="M232.966,216.496c0,2.057-0.52,3.674-1.56,4.852s-2.486,1.767-4.337,1.767
			c-1.893,0-3.353-0.579-4.381-1.736s-1.542-2.791-1.542-4.9c0-2.092,0.516-3.713,1.547-4.865s2.496-1.727,4.395-1.727
			c1.846,0,3.287,0.586,4.324,1.758S232.966,214.433,232.966,216.496z M222.727,216.496c0,1.74,0.371,3.06,1.112,3.959
			s1.818,1.349,3.23,1.349c1.424,0,2.499-0.448,3.226-1.345s1.09-2.218,1.09-3.964c0-1.729-0.362-3.04-1.085-3.933
			s-1.794-1.34-3.212-1.34c-1.424,0-2.506,0.45-3.248,1.349S222.727,214.779,222.727,216.496z"/>
	</g>
</g>
</svg>
